…
``` r
lost_players <- subset(x = combo,playerID %in% c("saenzol01","giambja01","damonjo01"))
print(as_tibble(lost_players))
```

    ## # A tibble: 44 x 29
    ##    playerID yearID stint teamID.x lgID.x     G    AB     R     H   X2B   X3B
    ##    <fct>     <int> <int> <fct>    <fct>  <int> <int> <int> <int> <int> <int>
    ##  1 damonjo~   1995     1 KCA      AL        47   188    32    53    11     5
    ##  2 damonjo~   1996     1 KCA      AL       145   517    61   140    22     5
    ##  3 damonjo~   1997     1 KCA      AL       146   472    70   130    12     8
    ##  4 damonjo~   1998     1 KCA      AL       161   642   104   178    30    10
    ##  5 damonjo~   1999     1 KCA      AL       145   583   101   179    39     9
    ##  6 damonjo~   2000     1 KCA      AL       159   655   136   214    42    10
    ##  7 damonjo~   2001     1 OAK      AL       155   644   108   165    34     4
    ##  8 damonjo~   2002     1 BOS      AL       154   623   118   178    34    11
    ##  9 damonjo~   2003     1 BOS      AL       145   608   103   166    32     6
    ## 10 damonjo~   2004     1 BOS      AL       150   621   123   189    35     6
    ## # ... with 34 more rows, and 18 more variables: HR <int>, RBI <int>, SB <int>,
    ## #   CS <int>, BB <int>, SO <int>, IBB <int>, HBP <int>, SH <int>, SF <int>,
    ## #   GIDP <int>, BA <dbl>, OBP <dbl>, X1B <int>, SLG <dbl>, teamID.y <fct>,
    ## #   lgID.y <fct>, salary <int>
…
