…
    ## -- Conflicts --------------------------------------------------------------- tidyverse_conflicts() --
    ## x dplyr::filter() masks stats::filter()
    ## x dplyr::lag()    masks stats::lag()

<b>  
Solve the following problerns using R </b>

Q1. Find all flights that  
1. Had an arrival delay of two or more hours

``` r
filter(flights, arr_delay >= 120)
```

    ## # A tibble: 10,200 x 19
    ##     year month   day dep_time sched_dep_time dep_delay arr_time sched_arr_time
    ##    <int> <int> <int>    <int>          <int>     <dbl>    <int>          <int>
    ##  1  2013     1     1      811            630       101     1047            830
    ##  2  2013     1     1      848           1835       853     1001           1950
    ##  3  2013     1     1      957            733       144     1056            853
    ##  4  2013     1     1     1114            900       134     1447           1222
    ##  5  2013     1     1     1505           1310       115     1638           1431
    ##  6  2013     1     1     1525           1340       105     1831           1626
    ##  7  2013     1     1     1549           1445        64     1912           1656
    ##  8  2013     1     1     1558           1359       119     1718           1515
    ##  9  2013     1     1     1732           1630        62     2028           1825
    ## 10  2013     1     1     1803           1620       103     2008           1750
    ## # ... with 10,190 more rows, and 11 more variables: arr_delay <dbl>,
    ## #   carrier <chr>, flight <int>, tailnum <chr>, origin <chr>, dest <chr>,
    ## #   air_time <dbl>, distance <dbl>, hour <dbl>, minute <dbl>, time_hour <dttm>

<br> 2. Flew to Houston (IAH or HOU)

``` r
filter(.data = flights, dest %in% c("IAH","HOU"))
```

    ## # A tibble: 9,313 x 19
    ##     year month   day dep_time sched_dep_time dep_delay arr_time sched_arr_time
    ##    <int> <int> <int>    <int>          <int>     <dbl>    <int>          <int>
    ##  1  2013     1     1      517            515         2      830            819
    ##  2  2013     1     1      533            529         4      850            830
    ##  3  2013     1     1      623            627        -4      933            932
    ##  4  2013     1     1      728            732        -4     1041           1038
    ##  5  2013     1     1      739            739         0     1104           1038
    ##  6  2013     1     1      908            908         0     1228           1219
    ##  7  2013     1     1     1028           1026         2     1350           1339
    ##  8  2013     1     1     1044           1045        -1     1352           1351
    ##  9  2013     1     1     1114            900       134     1447           1222
    ## 10  2013     1     1     1205           1200         5     1503           1505
    ## # ... with 9,303 more rows, and 11 more variables: arr_delay <dbl>,
    ## #   carrier <chr>, flight <int>, tailnum <chr>, origin <chr>, dest <chr>,
    ## #   air_time <dbl>, distance <dbl>, hour <dbl>, minute <dbl>, time_hour <dttm>

<br> 3. Were operated by United, American, or Delta

``` r
filter(.data = flights, carrier %in% c("UA", "AA","DL"))
```

    ## # A tibble: 139,504 x 19
    ##     year month   day dep_time sched_dep_time dep_delay arr_time sched_arr_time
    ##    <int> <int> <int>    <int>          <int>     <dbl>    <int>          <int>
    ##  1  2013     1     1      517            515         2      830            819
    ##  2  2013     1     1      533            529         4      850            830
    ##  3  2013     1     1      542            540         2      923            850
    ##  4  2013     1     1      554            600        -6      812            837
    ##  5  2013     1     1      554            558        -4      740            728
    ##  6  2013     1     1      558            600        -2      753            745
    ##  7  2013     1     1      558            600        -2      924            917
    ##  8  2013     1     1      558            600        -2      923            937
    ##  9  2013     1     1      559            600        -1      941            910
    ## 10  2013     1     1      559            600        -1      854            902
    ## # ... with 139,494 more rows, and 11 more variables: arr_delay <dbl>,
    ## #   carrier <chr>, flight <int>, tailnum <chr>, origin <chr>, dest <chr>,
    ## #   air_time <dbl>, distance <dbl>, hour <dbl>, minute <dbl>, time_hour <dttm>

<br> 4. Departed in summer (July, August, and September)?

``` r
filter(flights, month >= 7 & month <= 9)
```

    ## # A tibble: 86,326 x 19
    ##     year month   day dep_time sched_dep_time dep_delay arr_time sched_arr_time
    ##    <int> <int> <int>    <int>          <int>     <dbl>    <int>          <int>
    ##  1  2013     7     1        1           2029       212      236           2359
    ##  2  2013     7     1        2           2359         3      344            344
    ##  3  2013     7     1       29           2245       104      151              1
    ##  4  2013     7     1       43           2130       193      322             14
    ##  5  2013     7     1       44           2150       174      300            100
    ##  6  2013     7     1       46           2051       235      304           2358
    ##  7  2013     7     1       48           2001       287      308           2305
    ##  8  2013     7     1       58           2155       183      335             43
    ##  9  2013     7     1      100           2146       194      327             30
    ## 10  2013     7     1      100           2245       135      337            135
    ## # ... with 86,316 more rows, and 11 more variables: arr_delay <dbl>,
    ## #   carrier <chr>, flight <int>, tailnum <chr>, origin <chr>, dest <chr>,
    ## #   air_time <dbl>, distance <dbl>, hour <dbl>, minute <dbl>, time_hour <dttm>

<br> 5. Arrived more than two hours late, but didnt leave late?

``` r
filter(flights, arr_delay > 120 & dep_delay <= 0)
```

    ## # A tibble: 29 x 19
    ##     year month   day dep_time sched_dep_time dep_delay arr_time sched_arr_time
    ##    <int> <int> <int>    <int>          <int>     <dbl>    <int>          <int>
    ##  1  2013     1    27     1419           1420        -1     1754           1550
    ##  2  2013    10     7     1350           1350         0     1736           1526
    ##  3  2013    10     7     1357           1359        -2     1858           1654
    ##  4  2013    10    16      657            700        -3     1258           1056
    ##  5  2013    11     1      658            700        -2     1329           1015
    ##  6  2013     3    18     1844           1847        -3       39           2219
    ##  7  2013     4    17     1635           1640        -5     2049           1845
    ##  8  2013     4    18      558            600        -2     1149            850
    ##  9  2013     4    18      655            700        -5     1213            950
    ## 10  2013     5    22     1827           1830        -3     2217           2010
    ## # ... with 19 more rows, and 11 more variables: arr_delay <dbl>, carrier <chr>,
    ## #   flight <int>, tailnum <chr>, origin <chr>, dest <chr>, air_time <dbl>,
    ## #   distance <dbl>, hour <dbl>, minute <dbl>, time_hour <dttm>

<br> 6. Were delayed by at least an hour, but made up over 30 minutes in
flight

``` r
filter(flights, dep_delay >= 60 & (dep_delay - arr_delay) > 30)
```

    ## # A tibble: 1,844 x 19
    ##     year month   day dep_time sched_dep_time dep_delay arr_time sched_arr_time
    ##    <int> <int> <int>    <int>          <int>     <dbl>    <int>          <int>
    ##  1  2013     1     1     2205           1720       285       46           2040
    ##  2  2013     1     1     2326           2130       116      131             18
    ##  3  2013     1     3     1503           1221       162     1803           1555
    ##  4  2013     1     3     1839           1700        99     2056           1950
    ##  5  2013     1     3     1850           1745        65     2148           2120
    ##  6  2013     1     3     1941           1759       102     2246           2139
    ##  7  2013     1     3     1950           1845        65     2228           2227
    ##  8  2013     1     3     2015           1915        60     2135           2111
    ##  9  2013     1     3     2257           2000       177       45           2224
    ## 10  2013     1     4     1917           1700       137     2135           1950
    ## # ... with 1,834 more rows, and 11 more variables: arr_delay <dbl>,
    ## #   carrier <chr>, flight <int>, tailnum <chr>, origin <chr>, dest <chr>,
    ## #   air_time <dbl>, distance <dbl>, hour <dbl>, minute <dbl>, time_hour <dttm>

<br> 7. Departed between midnight and 6 am (inclusive)

``` r
filter(flights, dep_time <= 600 | dep_time == 2400)
```

    ## # A tibble: 9,373 x 19
    ##     year month   day dep_time sched_dep_time dep_delay arr_time sched_arr_time
    ##    <int> <int> <int>    <int>          <int>     <dbl>    <int>          <int>
    ##  1  2013     1     1      517            515         2      830            819
    ##  2  2013     1     1      533            529         4      850            830
    ##  3  2013     1     1      542            540         2      923            850
    ##  4  2013     1     1      544            545        -1     1004           1022
    ##  5  2013     1     1      554            600        -6      812            837
    ##  6  2013     1     1      554            558        -4      740            728
    ##  7  2013     1     1      555            600        -5      913            854
    ##  8  2013     1     1      557            600        -3      709            723
    ##  9  2013     1     1      557            600        -3      838            846
    ## 10  2013     1     1      558            600        -2      753            745
    ## # ... with 9,363 more rows, and 11 more variables: arr_delay <dbl>,
    ## #   carrier <chr>, flight <int>, tailnum <chr>, origin <chr>, dest <chr>,
    ## #   air_time <dbl>, distance <dbl>, hour <dbl>, minute <dbl>, time_hour <dttm>

<br> Q2 .How many flights have a missing dep\_time? What other variables
are missing? What might these rows represent?

``` r
filter(.data = flights,is.na(dep_time))
```

    ## # A tibble: 8,255 x 19
    ##     year month   day dep_time sched_dep_time dep_delay arr_time sched_arr_time
    ##    <int> <int> <int>    <int>          <int>     <dbl>    <int>          <int>
    ##  1  2013     1     1       NA           1630        NA       NA           1815
    ##  2  2013     1     1       NA           1935        NA       NA           2240
    ##  3  2013     1     1       NA           1500        NA       NA           1825
    ##  4  2013     1     1       NA            600        NA       NA            901
    ##  5  2013     1     2       NA           1540        NA       NA           1747
    ##  6  2013     1     2       NA           1620        NA       NA           1746
    ##  7  2013     1     2       NA           1355        NA       NA           1459
    ##  8  2013     1     2       NA           1420        NA       NA           1644
    ##  9  2013     1     2       NA           1321        NA       NA           1536
    ## 10  2013     1     2       NA           1545        NA       NA           1910
    ## # ... with 8,245 more rows, and 11 more variables: arr_delay <dbl>,
    ## #   carrier <chr>, flight <int>, tailnum <chr>, origin <chr>, dest <chr>,
    ## #   air_time <dbl>, distance <dbl>, hour <dbl>, minute <dbl>, time_hour <dttm>
…
<br> Q4. Sort flights to find the most delayed flights. Find the flights
that left earliest

``` r
arrange(.data = flights,desc(dep_delay))
```

    ## # A tibble: 336,776 x 19
    ##     year month   day dep_time sched_dep_time dep_delay arr_time sched_arr_time
    ##    <int> <int> <int>    <int>          <int>     <dbl>    <int>          <int>
    ##  1  2013     1     9      641            900      1301     1242           1530
    ##  2  2013     6    15     1432           1935      1137     1607           2120
    ##  3  2013     1    10     1121           1635      1126     1239           1810
    ##  4  2013     9    20     1139           1845      1014     1457           2210
    ##  5  2013     7    22      845           1600      1005     1044           1815
    ##  6  2013     4    10     1100           1900       960     1342           2211
    ##  7  2013     3    17     2321            810       911      135           1020
    ##  8  2013     6    27      959           1900       899     1236           2226
    ##  9  2013     7    22     2257            759       898      121           1026
    ## 10  2013    12     5      756           1700       896     1058           2020
    ## # ... with 336,766 more rows, and 11 more variables: arr_delay <dbl>,
    ## #   carrier <chr>, flight <int>, tailnum <chr>, origin <chr>, dest <chr>,
    ## #   air_time <dbl>, distance <dbl>, hour <dbl>, minute <dbl>, time_hour <dttm>

The Flight that left earlist is N384HA of Hawaiian Airlines Inc.  
<br> Q5. Sort flights to find the fastest flights

``` r
speed <- flights$distance/flights$air_time
flights <- mutate(.data = flights, speed)
arrange(.data = flights, desc(speed))
```

    ## # A tibble: 336,776 x 20
    ##     year month   day dep_time sched_dep_time dep_delay arr_time sched_arr_time
    ##    <int> <int> <int>    <int>          <int>     <dbl>    <int>          <int>
    ##  1  2013     5    25     1709           1700         9     1923           1937
    ##  2  2013     7     2     1558           1513        45     1745           1719
    ##  3  2013     5    13     2040           2025        15     2225           2226
    ##  4  2013     3    23     1914           1910         4     2045           2043
    ##  5  2013     1    12     1559           1600        -1     1849           1917
    ##  6  2013    11    17      650            655        -5     1059           1150
    ##  7  2013     2    21     2355           2358        -3      412            438
    ##  8  2013    11    17      759            800        -1     1212           1255
    ##  9  2013    11    16     2003           1925        38       17             36
    ## 10  2013    11    16     2349           2359       -10      402            440
    ## # ... with 336,766 more rows, and 12 more variables: arr_delay <dbl>,
    ## #   carrier <chr>, flight <int>, tailnum <chr>, origin <chr>, dest <chr>,
    ## #   air_time <dbl>, distance <dbl>, hour <dbl>, minute <dbl>, time_hour <dttm>,
    ## #   speed <dbl>

Fastest flight is N666DN of Delta Airlines  
<br> Q12. Which flights traveled tie longest? Which traveled the
shortest?

``` r
max.dist <- max(flights$distance)
min.dist <- min(flights$distance)
filter(.data = flights,distance == min.dist | distance == max.dist) %>% arrange(distance)
```

    ## # A tibble: 343 x 20
    ##     year month   day dep_time sched_dep_time dep_delay arr_time sched_arr_time
    ##    <int> <int> <int>    <int>          <int>     <dbl>    <int>          <int>
    ##  1  2013     7    27       NA            106        NA       NA            245
    ##  2  2013     1     1      857            900        -3     1516           1530
    ##  3  2013     1     2      909            900         9     1525           1530
    ##  4  2013     1     3      914            900        14     1504           1530
    ##  5  2013     1     4      900            900         0     1516           1530
    ##  6  2013     1     5      858            900        -2     1519           1530
    ##  7  2013     1     6     1019            900        79     1558           1530
    ##  8  2013     1     7     1042            900       102     1620           1530
    ##  9  2013     1     8      901            900         1     1504           1530
    ## 10  2013     1     9      641            900      1301     1242           1530
    ## # ... with 333 more rows, and 12 more variables: arr_delay <dbl>,
    ## #   carrier <chr>, flight <int>, tailnum <chr>, origin <chr>, dest <chr>,
    ## #   air_time <dbl>, distance <dbl>, hour <dbl>, minute <dbl>, time_hour <dttm>,
    ## #   speed <dbl>

<br> Q13. What happens if you include the name of a variable multiple
times in a select () call?

``` r
select(.data = flights, year, year, month, month, day,day)
```

    ## # A tibble: 336,776 x 3
    ##     year month   day
    ##    <int> <int> <int>
    ##  1  2013     1     1
    ##  2  2013     1     1
    ##  3  2013     1     1
    ##  4  2013     1     1
    ##  5  2013     1     1
    ##  6  2013     1     1
    ##  7  2013     1     1
    ##  8  2013     1     1
    ##  9  2013     1     1
    ## 10  2013     1     1
    ## # ... with 336,766 more rows
Only distinct values are selected.  
<br> Q14. What does one\_of function do? why it might be useful in
conjuction with select?  
The opne\_of function selects variables with a character vector rather
than unquoted variable name arguments. This function is useful because
it is easier to programmatically generate character vectors with
variable names than to generate unquoted variable names, which are
easier to type.

``` r
vars <- c("year","month","day","dep_time","sched_dep_time")
select(.data = flights,one_of(vars))
```

    ## # A tibble: 336,776 x 5
    ##     year month   day dep_time sched_dep_time
    ##    <int> <int> <int>    <int>          <int>
    ##  1  2013     1     1      517            515
    ##  2  2013     1     1      533            529
    ##  3  2013     1     1      542            540
    ##  4  2013     1     1      544            545
    ##  5  2013     1     1      554            600
    ##  6  2013     1     1      554            558
    ##  7  2013     1     1      555            600
    ##  8  2013     1     1      557            600
    ##  9  2013     1     1      557            600
    ## 10  2013     1     1      558            600
    ## # ... with 336,766 more rows
…
